00000000000000000000000001110010000000000000000000
00000000000000000000000000000111111000000000000000
11000000000000000000000001001100100100000000000000
10100000000000000111000000100000111000000000000000
11100000000000000000000000011100010000000000000000
01010000000000000000000000011100000000000000000000
00111100000000000000000000000000001100000000000000
00001100000000000000000000000000001100000000000000
00010010000000000000000000000000000000000000000000
00001110000000000000000000000000000000000000111000
00000100000011000000000000000000000000000000000000
00000000000011000000000000000100000000000000000000
00000000000000000000000000001010000000000000000000
00000000000000000000000000001001000000100000000000
00000000000000000000000000000110000001010011100000
10100000000000000000000000000000000001001000000000
10000000001100000000000000000000000000110000000000
00001000001100010000000000000000000000000000000000
11000100000000101000000000000000000000000000000000
11001000000001001000000000000000000000000000000000
00110000000000110000000000000000000000000010000000
00000000000000000000000000000110000000000101000000
00000000001100000000000000001010000000000101000000
00000000000010000000000000000100000000000010000000
00000000000001000000000000000000000000000000000000
00000000001001000000000000000000000000000000000100
00000000011001000000000000001110000000000000001110
00000001110010000000100000000000000000011000010010
00100000000010000011010110000000000000100100111000
00100000001100000000110101000000000000011000000000
00000000000000000000000101000000000000000000000000
00000000000001100000000010000000000000000000000000
00000000001100100000000000000000000000000000000000
00001010000011100000000000000000000001100000000000
00011110110110000000000000000000000010100000000000
01000000100000000000000000000000000001000000000000
10000000100000000000000000000000000000000000000000
00010000110100000000000000000000000000000000000000
00010000010100000000000000010000000000000000000000
11101000110100000000000000010000000000000000000000
00110000100000000000000000010000000000000000000000
00010000100000000000000000000000000000000000000000
00010000000000000001100000000000000000000000000000
00001110000000000010010000000000000000000000000000
00000000000000000001010000011000000000000000000000
00000000000000000000100000011000000000000001100000
00000000000000000000000000000000000000000001100011
00000000000000011000000000000000000000000000000011
00000000000000100100000000000000000000000000000000
00000000000000011000000000000000000000000000000000

